[
  {
    "name": "r1-ca-1-client-1",
    "issuer": "output/r1-ca-1/r1-ca-1.cert",
    "issuerKey": "output/r1-ca-1/r1-ca-1.key",
    "subject": {
      "country": "RS",
      "organization": "MegaTravel",
      "organizationalUnit": "Security Dept. RS",
      "commonName": "MegaTravel RS Client 1"
    },
    "CA": false,
    "rootCA": false,
    "selfSigned": false,
    "generateKeys": true,
    "validityPeriod": 730,
    "extendedKeyUsage": [
      "clientAuth"
    ],
    "authorityInfoAccess": [
      {
        "method": "OCSP",
        "value": { "type": "URI", "value": "https://ocsp.megatravel.com/certificates" }
      }
    ],
    "zip": true
  }
]
