[
  {
    "name": "root-ca-2",
    "issuer": {
      "country": null,
      "organization": "MegaTravel",
      "organizationalUnit": "Security Dept.",
      "commonName": "MegaTravel Root CA 2"
    },
    "CA": true,
    "rootCA": true,
    "selfSigned": true,
    "generateKeys": true,
    "validityPeriod": 3652,
    "keyUsage": [
      "keyCertSign",
      "crlSign"
    ],
    "nameConstraints": {
      "permitted": [
        { "type": "DNS", "value": "megatravel.com" }
      ],
      "excluded": []
    },
    "zip": true
  }
]
